Division,WeightClassKg,Place,Name,Team,BodyweightKg,Best3SquatKg,Best3BenchKg,Best3DeadliftKg,TotalKg,Equipment,Event,Sex,BirthDate
Boys,51.71,1,Jeremiah Jackson,Royse City,51.35,102.06,61.23,90.72,254.01,Unlimited,SBD,M,
Boys,51.71,DQ,Jared Ricker,Royse City,50.71,120.2,,,,Unlimited,SBD,M,
Boys,55.79,1,Josue Soto,Nevada Community,55.16,138.35,92.99,154.22,385.55,Unlimited,SBD,M,
Boys,55.79,2,Jayden Rodriguez,Garland Naaman Forest,55.16,111.13,56.7,113.4,281.23,Unlimited,SBD,M,
Boys,59.87,1,Nathan Kolstad,Royse City,59.69,190.51,102.06,165.56,458.13,Unlimited,SBD,M,
Boys,59.87,2,Cole Crawford,Royse City,59.33,149.69,97.52,142.88,390.09,Unlimited,SBD,M,
Boys,59.87,3,Michael Johnson,South Garland,59.87,154.22,72.57,154.22,381.02,Unlimited,SBD,M,
Boys,67.13,DQ,Brysen Coleman,Nevada Community,66.32,,,,,Unlimited,SBD,M,
Boys,74.84,1,Blake Kurtz,Royse City,72.67,204.12,129.27,199.58,532.97,Unlimited,SBD,M,
Boys,74.84,2,Eric Waterman,Garland Rowlett,70.76,151.95,102.06,156.49,410.5,Unlimited,SBD,M,
Boys,82.1,1,Gabe Duncan,Royse City,78.56,224.53,140.61,210.92,576.06,Unlimited,SBD,M,
Boys,82.1,2,Rodrigo Romero,South Garland,79.29,174.63,138.35,176.9,489.88,Unlimited,SBD,M,
Boys,82.1,3,Lisandro Diaz,South Garland,79.92,136.08,79.38,156.49,371.95,Unlimited,SBD,M,
Boys,82.1,4,Miguel Vera,South Garland,81.28,113.4,77.11,158.76,349.27,Unlimited,SBD,M,
Boys,89.81,1,Jackson Sorrells,Nevada Community,88.72,206.38,145.15,204.12,555.65,Unlimited,SBD,M,
Boys,89.81,2,Preston Rose,Garland Rowlett,87,149.69,88.45,185.97,424.11,Unlimited,SBD,M,
Boys,89.81,3,Nathan Sadler,Garland Rowlett,87.72,145.15,104.33,145.15,394.63,Unlimited,SBD,M,
Boys,89.81,4,Sinclair Del Real,South Garland,87.91,140.61,97.52,151.95,390.09,Unlimited,SBD,M,
Boys,89.81,5,Bahi Elagami,Garland Rowlett,89.72,124.74,92.99,154.22,371.95,Unlimited,SBD,M,
Boys,89.81,DQ,Garrett Taylor,Nevada Community,89.72,192.78,147.42,,,Unlimited,SBD,M,
Boys,99.79,1,Nathan Fraire,Garland Naaman Forest,98.43,258.55,179.17,226.8,664.51,Unlimited,SBD,M,
Boys,99.79,2,Sebastian Lopez,Royse City,98.79,219.99,124.74,192.78,537.51,Unlimited,SBD,M,
Boys,99.79,3,Courtney Jones,Garland Naaman Forest,97.25,195.04,111.13,201.85,508.02,Unlimited,SBD,M,
Boys,99.79,4,Rodrick Smith,Garland Naaman Forest,99.7,183.7,111.13,204.12,498.95,Unlimited,SBD,M,
Boys,99.79,5,Manuel Vera,South Garland,92.26,190.51,92.99,183.7,467.2,Unlimited,SBD,M,
Boys,99.79,6,Jalen McLennan,South Garland,90.81,142.88,92.99,192.78,428.64,Unlimited,SBD,M,
Boys,99.79,7,Ralph Jimenez,Garland Rowlett,92.26,138.35,113.4,174.63,426.38,Unlimited,SBD,M,
Boys,109.77,1,Elian Perez,South Garland,105.69,204.12,129.27,213.19,546.58,Unlimited,SBD,M,
Boys,109.77,2,Hunter Rawlins,Nevada Community,102.69,192.78,124.74,210.92,528.44,Unlimited,SBD,M,
Boys,124.74,1,Isaiah Perdomo,Garland Naaman Forest,118.66,244.94,181.44,217.72,644.1,Unlimited,SBD,M,
Boys,124.74,2,Vincent Martin,Garland Rowlett,122.02,240.4,133.81,215.46,589.67,Unlimited,SBD,M,
Boys,124.74,3,Jesus Barron,South Garland,115.39,258.55,124.74,190.51,573.79,Unlimited,SBD,M,
Boys,124.74,DQ,Viko Santibanez,Nevada Community,121.11,181.44,102.06,,,Unlimited,SBD,M,
Boys,139.71,1,Amarion Berry,Garland Rowlett,135.71,240.4,138.35,254.01,632.76,Unlimited,SBD,M,
Boys,139.71,2,Hector Platas,South Garland,132.27,238.14,165.56,217.72,621.42,Unlimited,SBD,M,
Boys,139.71,3,Leandro Escobar,Garland Naaman Forest,132.54,240.4,161.03,213.19,614.62,Unlimited,SBD,M,
Boys,139.71,4,Jack Scott,Nevada Community,127.64,204.12,204.12,199.58,607.81,Unlimited,SBD,M,
Boys,139.71,5,Bradley Dean,Garland Rowlett,126.82,195.04,124.74,163.29,483.08,Unlimited,SBD,M,
Boys,139.71,DQ,Jose Rodriguez,Garland Rowlett,133.08,238.14,138.35,,,Unlimited,SBD,M,
Boys,139.71,DQ,Jaden Vera,Garland Rowlett,133.81,176.9,,,,Unlimited,SBD,M,
Boys,139.71+,1,Saul Jauregi,South Garland,145.33,183.7,115.67,192.78,492.15,Unlimited,SBD,M,
