Division,WeightClassKg,Place,Name,Team,BodyweightKg,Best3SquatKg,Best3BenchKg,Best3DeadliftKg,TotalKg,Equipment,Event,Sex,BirthDate
Boys,51.71,1,Kevin Corte,Glen Rose,51.35,77.11,68.04,113.4,258.55,Unlimited,SBD,M,
Boys,51.71,2,Jacob Remo,Saginaw,37.1,95.25,40.82,74.84,210.92,Unlimited,SBD,M,
Boys,55.79,1,Jonathan Barajas,Saginaw,53.43,120.2,77.11,142.88,340.19,Unlimited,SBD,M,
Boys,59.87,1,Elias Anderson,Glen Rose,59.06,129.27,92.99,154.22,376.48,Unlimited,SBD,M,
Boys,59.87,2,Manny Flores,Glen Rose,59.33,136.08,72.57,133.81,342.46,Unlimited,SBD,M,
Boys,59.87,3,Andy Tran,Saginaw,59.51,106.59,72.57,120.2,299.37,Unlimited,SBD,M,
Boys,59.87,4,Dominic Salting,Glen Rose,59.15,106.59,72.57,113.4,292.57,Unlimited,SBD,M,
Boys,59.87,5,Ryan Oglesby,Glen Rose,57.52,113.4,52.16,124.74,290.3,Unlimited,SBD,M,
Boys,67.13,1,Blake Leach,Brock,67.09,192.78,113.4,176.9,483.08,Unlimited,SBD,M,
Boys,67.13,2,Saul Reyna,Glen Rose,66.41,170.1,115.67,190.51,476.27,Unlimited,SBD,M,
Boys,67.13,3,Benson Chau,Saginaw,65.14,127.01,90.72,142.88,360.61,Unlimited,SBD,M,
Boys,67.13,4,Gray Seward,Glen Rose,65.5,120.2,86.18,140.61,347,Unlimited,SBD,M,
Boys,67.13,5,Juan Rodriguez,Glen Rose,67.04,108.86,79.38,142.88,331.12,Unlimited,SBD,M,
Boys,67.13,6,Cooper Hernandez,Glen Rose,63.05,111.13,74.84,129.27,315.25,Unlimited,SBD,M,
Boys,74.84,1,Vance Guthrie,Brock,74.8,217.72,149.69,222.26,589.67,Unlimited,SBD,M,
Boys,74.84,2,Meritt Brewer,Glen Rose,74.3,208.65,127.01,208.65,544.31,Unlimited,SBD,M,
Boys,74.84,3,Michael Rodriguez,Saginaw,74.84,213.19,108.86,201.85,523.9,Unlimited,SBD,M,
Boys,74.84,4,Uli Muro,Glen Rose,74.84,179.17,104.33,165.56,449.06,Unlimited,SBD,M,
Boys,74.84,5,Terry Starks,Saginaw,70.49,151.95,95.25,190.51,437.72,Unlimited,SBD,M,
Boys,74.84,6,Kyler Cullum,Brock,74.16,170.1,92.99,161.03,424.11,Unlimited,SBD,M,
Boys,74.84,7,Caden Torgerson,Glen Rose,74.39,151.95,88.45,161.03,401.43,Unlimited,SBD,M,
Boys,74.84,8,James Huynh,Saginaw,71.58,131.54,95.25,158.76,385.55,Unlimited,SBD,M,
Boys,74.84,9,Torren Coonrod,Glen Rose,73.75,142.88,74.84,147.42,365.14,Unlimited,SBD,M,
Boys,74.84,10,Alexis Muro,Glen Rose,72.21,124.74,61.23,131.54,317.51,Unlimited,SBD,M,
Boys,82.1,1,Gage Douglas,Glen Rose,80.29,183.7,127.01,183.7,494.42,Unlimited,SBD,M,
Boys,82.1,2,Jeampy Mukuna,Saginaw,81.37,183.7,102.06,183.7,469.47,Unlimited,SBD,M,
Boys,82.1,3,Reed Johnson,Brock,76.2,161.03,124.74,172.37,458.13,Unlimited,SBD,M,
Boys,82.1,4,Dylan Howard,Glen Rose,80.65,161.03,99.79,195.04,455.86,Unlimited,SBD,M,
Boys,82.1,5,Izaiah Mendoza,Saginaw,76.75,167.83,79.38,170.1,417.3,Unlimited,SBD,M,
Boys,82.1,6,Brody Riker,Brock,78.47,138.35,90.72,161.03,390.09,Unlimited,SBD,M,
Boys,82.1,DQ,Aaron Diaz,Saginaw,82.01,142.88,,136.08,,Unlimited,SBD,M,
Boys,82.1,DQ,Hyatt Dunaway,Brock,81.37,222.26,,,,Unlimited,SBD,M,
Boys,82.1,DQ,John Talley,Glen Rose,81.28,117.93,,136.08,,Unlimited,SBD,M,
Boys,89.81,1,Taylor Warner,Brock,84.37,226.8,161.03,195.04,582.87,Unlimited,SBD,M,
Boys,89.81,2,Caleb Holt,Brock,88.59,215.46,147.42,204.12,566.99,Unlimited,SBD,M,
Boys,89.81,3,Jesse Kruijswijk,Saginaw,89.63,156.49,120.2,201.85,478.54,Unlimited,SBD,M,
Boys,89.81,4,Jack Dieball,Brock,86.36,165.56,111.13,181.44,458.13,Unlimited,SBD,M,
Boys,89.81,5,Jack Jewett,Glen Rose,89.09,149.69,88.45,167.83,405.97,Unlimited,SBD,M,
Boys,89.81,6,Luke Dollyhigh,Brock,82.78,151.95,97.52,149.69,399.16,Unlimited,SBD,M,
Boys,89.81,7,William Hall,Saginaw,84.01,154.22,88.45,154.22,396.89,Unlimited,SBD,M,
Boys,89.81,8,Dayne Bock,Glen Rose,89.36,140.61,72.57,136.08,349.27,Unlimited,SBD,M,
Boys,99.79,1,Keltyn Raymond,Glen Rose,99.06,260.82,163.29,251.74,675.85,Unlimited,SBD,M,
Boys,99.79,2,Ethan Brooks,Brock,99.74,235.87,183.7,226.8,646.37,Unlimited,SBD,M,
Boys,99.79,3,Malik McCoy,Saginaw,92.71,192.78,136.08,231.33,560.19,Unlimited,SBD,M,
Boys,99.79,4,Patricio Long,Saginaw,95.89,192.78,129.27,183.7,505.76,Unlimited,SBD,M,
Boys,99.79,5,Alijah Aguilar,Brock,90.36,183.7,122.47,181.44,487.61,Unlimited,SBD,M,
Boys,99.79,6,Kaden Gray,Glen Rose,99.7,181.44,127.01,163.29,471.74,Unlimited,SBD,M,
Boys,99.79,7,Ross Clark,Brock,94.89,174.63,108.86,151.95,435.45,Unlimited,SBD,M,
Boys,99.79,8,Hunter Wright,Glen Rose,99.34,127.01,61.23,158.76,347,Unlimited,SBD,M,
Boys,109.77,1,Adam Mueller,Brock,104.05,297.1,179.17,229.06,705.34,Unlimited,SBD,M,
Boys,109.77,2,Sawyer Ghazal,Glen Rose,103.87,226.8,158.76,204.12,589.67,Unlimited,SBD,M,
Boys,109.77,3,Beckham Friesen,Brock,109.77,208.65,165.56,195.04,569.26,Unlimited,SBD,M,
Boys,109.77,4,Walker Hughes,Brock,105.41,215.46,142.88,204.12,562.45,Unlimited,SBD,M,
Boys,109.77,5,Christian Ballesteros,Glen Rose,105.87,199.58,131.54,188.24,519.36,Unlimited,SBD,M,
Boys,109.77,6,Isaac Medoza,Saginaw,101.79,183.7,102.06,192.78,478.54,Unlimited,SBD,M,
Boys,109.77,7,Winner Nasibu,Saginaw,99.97,183.7,90.72,183.7,458.13,Unlimited,SBD,M,
Boys,109.77,8,Cash Brittain,Brock,101.33,183.7,92.99,181.44,458.13,Unlimited,SBD,M,
Boys,109.77,9,Jaxson Pillow,Glen Rose,108.14,163.29,102.06,158.76,424.11,Unlimited,SBD,M,
Boys,109.77,10,Chase Millhollon,Saginaw,99.97,124.74,86.18,127.01,337.93,Unlimited,SBD,M,
Boys,124.74,1,Evan Clapp,Brock,118.93,260.82,195.04,242.67,698.53,Unlimited,SBD,M,
Boys,124.74,2,Caden Merrett,Brock,114.44,251.74,161.03,185.97,598.74,Unlimited,SBD,M,
Boys,124.74,3,Waylon Winfrey,Brock,115.48,210.92,161.03,165.56,537.51,Unlimited,SBD,M,
Boys,124.74,4,Chase Alexander,Glen Rose,118.39,170.1,122.47,154.22,446.79,Unlimited,SBD,M,
Boys,124.74,5,Grayson Morphies,Brock,119.93,170.1,117.93,151.95,439.98,Unlimited,SBD,M,
Boys,124.74,6,Boyd Weseman,Saginaw,115.67,115.67,83.91,156.49,356.07,Unlimited,SBD,M,
Boys,124.74,7,Adam DeLaFuente,Saginaw,110.31,122.47,79.38,145.15,347,Unlimited,SBD,M,
Boys,139.71,1,Brock Riker,Brock,125.01,244.94,181.44,231.33,657.71,Unlimited,SBD,M,
Boys,139.71,2,Braxtin Knight,Glen Rose,128.82,158.76,111.13,158.76,428.64,Unlimited,SBD,M,
Boys,139.71+,1,Clark Anderson,Glen Rose,141.07,183.7,115.67,190.51,489.88,Unlimited,SBD,M,
Boys,139.71+,2,Carmelo Martinez,Brock,155.26,192.78,120.2,158.76,471.74,Unlimited,SBD,M,
