Place,Name,Sex,BirthDate,Age,Country,Equipment,Division,BodyweightKg,WeightClassKg,Squat1Kg,Squat2Kg,Squat3Kg,Best3SquatKg,Bench1Kg,Bench2Kg,Bench3Kg,Best3BenchKg,Deadlift1Kg,Deadlift2Kg,Deadlift3Kg,Best3DeadliftKg,TotalKg,Event
1,Annelies Van De Velde,F,2001-06-19,22,Belgium,Raw,Juniors,50.4,52,90,95,-97.5,95,57.5,60,63,63,105,110,112.5,112.5,270.5,SBD
2,Nina Humbeeck,F,2001-09-17,21,Belgium,Raw,Juniors,51.9,52,90,97.5,102.5,102.5,57.5,60.5,-63.5,60.5,90,102.5,107.5,107.5,270.5,SBD
1,Lieselot Monteyne,F,2001-11-09,21,Belgium,Raw,Juniors,62,63,97.5,105,110,110,55,57.5,-60,57.5,107.5,115,120,120,287.5,SBD
1,Aurélie Van Nuffelen,F,2001-06-18,22,Belgium,Raw,Juniors,68,69,122.5,127.5,-132.5,127.5,60,-62.5,62.5,62.5,132.5,-145,150,150,340,SBD
2,Zoë Vangeneugden,F,2004-10-26,18,Belgium,Raw,Juniors,66,69,110,117.5,122.5,122.5,60,-62.5,-62.5,60,130,137.5,-142.5,137.5,320,SBD
3,Chaimae Talbi,F,2003-09-22,19,Belgium,Raw,Juniors,68.7,69,90,97.5,-105,97.5,47.5,50,52.5,52.5,117.5,125,-130,125,275,SBD
1,Ellen Goorman,F,2004-10-29,18,Belgium,Raw,Juniors,74.5,76,152.5,157.5,-160,157.5,82.5,86,89,89,140,150,-155,150,396.5,SBD
2,Luna Bonnet,F,2002-04-08,21,Belgium,Raw,Juniors,73.7,76,122.5,-135,145,145,72.5,77.5,82.5,82.5,127.5,140,152.5,152.5,380,SBD
1,Caro Smet,F,2000-05-29,23,Belgium,Raw,Juniors,92.1,84+,110,117.5,-125,117.5,60,65,-67.5,65,130,140,147.5,147.5,330,SBD
1,Evelien Artoos,F,1981-12-09,41,Belgium,Raw,Masters 1,60.8,63,125,132.5,137.5,137.5,60,65,67.5,67.5,140,150,160,160,365,SBD
2,Cerina Marchetta,F,1982-05-16,41,Belgium,Raw,Masters 1,61.4,63,85,90,95,95,45,52.5,-55,52.5,100,105,110,110,257.5,SBD
1,Anne-Mieke Nuyts,F,1975-05-13,48,Belgium,Raw,Masters 1,74.6,76,117.5,-122.5,-125,117.5,67.5,-72.5,-75.5,67.5,-157.5,157.5,-167.5,157.5,342.5,SBD
2,Katrien Adriaensens,F,1980-01-31,43,Belgium,Raw,Masters 1,74.6,76,117.5,-125,125,125,62.5,-67.5,-67.5,62.5,140,-150,-150,140,327.5,SBD
1,Valerie Wagemans,F,1981-09-08,42,Belgium,Raw,Masters 1,77.1,84,-100,100,110,110,50,52.5,-55,52.5,120,130,-140,130,292.5,SBD
1,Carine Stallaert,F,1963-01-18,60,Belgium,Raw,Masters 3,51.4,52,75,80,85,85,42.5,45,-50,45,85,95,105,105,235,SBD
NS,Ineke Van Den Cruyce,F,1993-08-17,30,Belgium,Raw,Open,,,,,,,,,,,,,,,,SBD
NS,Laura Biesmans,F,1997-09-16,26,Belgium,Raw,Open,,,,,,,,,,,,,,,,SBD
1,Annelies Van De Velde,F,2001-06-19,22,Belgium,Raw,Open,50.4,52,90,95,-97.5,95,57.5,60,63,63,105,110,112.5,112.5,270.5,SBD
2,Nina Humbeeck,F,2001-09-17,21,Belgium,Raw,Open,51.9,52,90,97.5,102.5,102.5,57.5,60.5,-63.5,60.5,90,102.5,107.5,107.5,270.5,SBD
3,Carine Stallaert,F,1963-01-18,60,Belgium,Raw,Open,51.4,52,75,80,85,85,42.5,45,-50,45,85,95,105,105,235,SBD
1,Marie Bergo,F,1990-10-07,32,Norway,Raw,Open,56.7,57,95,102.5,107.5,107.5,52.5,57.5,-60,57.5,125,135,140,140,305,SBD
2,Lieze Linden,F,1992-01-12,31,Belgium,Raw,Open,55.4,57,80,85,90,90,55,57.5,-60,57.5,120,127.5,135,135,282.5,SBD
1,Evelien Artoos,F,1981-12-09,41,Belgium,Raw,Open,60.8,63,125,132.5,137.5,137.5,60,65,67.5,67.5,140,150,160,160,365,SBD
2,Sanne De Boey,F,1994-05-31,29,Belgium,Raw,Open,61.3,63,115,122.5,-130,122.5,60,-62.5,-62.5,60,137.5,150,157.5,157.5,340,SBD
3,Zita Depoorter,F,2006-03-06,17,Belgium,Raw,Open,61.3,63,100,110,115,115,42.5,47.5,50,50,110,120,130,130,295,SBD
4,Lieselot Monteyne,F,2001-11-09,21,Belgium,Raw,Open,62,63,97.5,105,110,110,55,57.5,-60,57.5,107.5,115,120,120,287.5,SBD
5,Cerina Marchetta,F,1982-05-16,41,Belgium,Raw,Open,61.4,63,85,90,95,95,45,52.5,-55,52.5,100,105,110,110,257.5,SBD
6,Chada Naim,F,2005-08-03,18,Belgium,Raw,Open,62,63,65,72.5,77.5,77.5,35,42.5,45,45,80,95,105,105,227.5,SBD
1,Rebecca Neal,F,1993-01-21,30,UK,Raw,Open,68,69,-120,125,-130,125,65,70,-75,70,160,170,-177.5,170,365,SBD
2,Olina Geluykens,F,1999-11-01,23,Belgium,Raw,Open,67.5,69,117.5,125,130,130,60,65,-67.5,65,130,140,145,145,340,SBD
3,Aurélie Van Nuffelen,F,2001-06-18,22,Belgium,Raw,Open,68,69,122.5,127.5,-132.5,127.5,60,-62.5,62.5,62.5,132.5,-145,150,150,340,SBD
4,Zoë Vangeneugden,F,2004-10-26,18,Belgium,Raw,Open,66,69,110,117.5,122.5,122.5,60,-62.5,-62.5,60,130,137.5,-142.5,137.5,320,SBD
5,Ellen Vandenbruwaene,F,1996-01-04,27,Belgium,Raw,Open,68,69,85,95,-105,95,47.5,52.5,-55,52.5,115,125,130,130,277.5,SBD
6,Laura Degraen,F,1997-05-29,26,Belgium,Raw,Open,64.6,69,95,-102.5,107.5,107.5,40,45,-50,45,110,117.5,122.5,122.5,275,SBD
7,Chaimae Talbi,F,2003-09-22,19,Belgium,Raw,Open,68.7,69,90,97.5,-105,97.5,47.5,50,52.5,52.5,117.5,125,-130,125,275,SBD
8,Nathalie Maes,F,1992-01-29,31,Belgium,Raw,Open,66,69,85,-90,90,90,50,52.5,-55,52.5,115,122.5,-125,122.5,265,SBD
9,Fien Slembrouck,F,2006-09-01,17,Belgium,Raw,Open,68.1,69,80,-95,95,95,47.5,52.5,-55,52.5,87.5,95,100,100,247.5,SBD
10,Sarah Cosaert,F,2005-11-20,17,Belgium,Raw,Open,64.1,69,82.5,87.5,-92.5,87.5,40,45,47.5,47.5,90,97.5,110,110,245,SBD
11,Anke Van Nieuwenhuyse,F,1989-08-02,34,Belgium,Raw,Open,67.5,69,-65,70,-75,70,40,-45,45,45,100,107.5,115,115,230,SBD
NS,Sahyuri Lalime,F,1984-11-18,38,USA,Raw,Open,65.4,69,,,,,,,,,,,,,,SBD
1,Ellen Goorman,F,2004-10-29,18,Belgium,Raw,Open,74.5,76,152.5,157.5,-160,157.5,82.5,86,89,89,140,150,-155,150,396.5,SBD
2,Luna Bonnet,F,2002-04-08,21,Belgium,Raw,Open,73.7,76,122.5,-135,145,145,72.5,77.5,82.5,82.5,127.5,140,152.5,152.5,380,SBD
3,Anne-Mieke Nuyts,F,1975-05-13,48,Belgium,Raw,Open,74.6,76,117.5,-122.5,-125,117.5,67.5,-72.5,-75.5,67.5,-157.5,157.5,-167.5,157.5,342.5,SBD
4,Katrien Adriaensens,F,1980-01-31,43,Belgium,Raw,Open,74.6,76,117.5,-125,125,125,62.5,-67.5,-67.5,62.5,140,-150,-150,140,327.5,SBD
5,Shirley Gaens,F,2005-04-19,18,Belgium,Raw,Open,75.3,76,120,127.5,132.5,132.5,55,60,62.5,62.5,115,122.5,-130,122.5,317.5,SBD
6,Anne Sofie Noël,F,1999-09-02,24,Belgium,Raw,Open,72.6,76,92.5,100,107.5,107.5,52.5,57.5,60,60,115,125,132.5,132.5,300,SBD
7,Weronika Adamowska,F,1998-10-26,24,Poland,Raw,Open,75.9,76,95,102.5,107.5,107.5,45,50,-52.5,50,115,122.5,130,130,287.5,SBD
1,Lien Van Buggenhout,F,1993-06-26,30,Belgium,Raw,Open,81,84,-125,-125,125,125,82.5,87.5,-92.5,87.5,140,-157.5,157.5,157.5,370,SBD
2,Aafje Vermeiren,F,1994-07-25,29,Belgium,Raw,Open,82,84,122.5,130,-137.5,130,72.5,80,82.5,82.5,142.5,-152.5,152.5,152.5,365,SBD
3,Eva Van Dooren,F,1993-07-19,30,Belgium,Raw,Open,77.5,84,102.5,107.5,110,110,62.5,-67.5,-67.5,62.5,135,-140,-140,135,307.5,SBD
4,Nynke Brouwer,F,1997-08-13,26,Netherlands,Raw,Open,76.3,84,97.5,105,-110,105,60,62.5,-65,62.5,120,127.5,-132.5,127.5,295,SBD
5,Valerie Wagemans,F,1981-09-08,42,Belgium,Raw,Open,77.1,84,-100,100,110,110,50,52.5,-55,52.5,120,130,-140,130,292.5,SBD
1,Klomkliang Phattaraporn,F,1997-01-28,26,Belgium,Raw,Open,90.8,84+,145,155,160,160,65,75,80,80,160,170,175,175,415,SBD
2,Caro Smet,F,2000-05-29,23,Belgium,Raw,Open,92.1,84+,110,117.5,-125,117.5,60,65,-67.5,65,130,140,147.5,147.5,330,SBD
1,Zita Depoorter,F,2006-03-06,17,Belgium,Raw,Sub-Juniors,61.3,63,100,110,115,115,42.5,47.5,50,50,110,120,130,130,295,SBD
2,Chada Naim,F,2005-08-03,18,Belgium,Raw,Sub-Juniors,62,63,65,72.5,77.5,77.5,35,42.5,45,45,80,95,105,105,227.5,SBD
1,Fien Slembrouck,F,2006-09-01,17,Belgium,Raw,Sub-Juniors,68.1,69,80,-95,95,95,47.5,52.5,-55,52.5,87.5,95,100,100,247.5,SBD
2,Sarah Cosaert,F,2005-11-20,17,Belgium,Raw,Sub-Juniors,64.1,69,82.5,87.5,-92.5,87.5,40,45,47.5,47.5,90,97.5,110,110,245,SBD
1,Shirley Gaens,F,2005-04-19,18,Belgium,Raw,Sub-Juniors,75.3,76,120,127.5,132.5,132.5,55,60,62.5,62.5,115,122.5,-130,122.5,317.5,SBD
NS,Kathleen Compagnie,F,1980-08-27,43,Belgium,Single-ply,Masters 1,66.9,69,,,,,,,,,,,,,,SBD
1,Michelle Finel,F,1992-09-11,31,Belgium,Single-ply,Open,68,69,142.5,-147.5,-147.5,142.5,72.5,75,77.5,77.5,130,137.5,145,145,365,SBD
NS,Kathleen Compagnie,F,1980-08-27,43,Belgium,Single-ply,Open,66.9,69,,,,,,,,,,,,,,SBD
1,Marie Van Loon,F,2002-09-07,21,Belgium,Raw,Juniors,57.5,63,,,,,67.5,70,72.5,72.5,,,,,72.5,B
1,Elise Rummens,F,1981-11-09,41,Belgium,Raw,Masters 1,60.4,63,,,,,70,72.5,75,75,,,,,75,B
2,Kimberly Ellis #1,F,1974-12-16,48,USA,Raw,Masters 1,58.5,63,,,,,67.5,-70,-70,67.5,,,,,67.5,B
1,Elise Rummens,F,1981-11-09,41,Belgium,Raw,Open,60.4,63,,,,,70,72.5,75,75,,,,,75,B
2,Marie Van Loon,F,2002-09-07,21,Belgium,Raw,Open,57.5,63,,,,,67.5,70,72.5,72.5,,,,,72.5,B
3,Kimberly Ellis #1,F,1974-12-16,48,USA,Raw,Open,58.5,63,,,,,67.5,-70,-70,67.5,,,,,67.5,B
4,Liselotte De Troch,F,1996-11-05,26,Belgium,Raw,Open,60.5,63,,,,,60,65,-70,65,,,,,65,B
1,Mauritz Van Impe,M,2004-11-13,18,Belgium,Raw,Juniors,57.8,59,110,125,132.5,132.5,70,-75,-75,70,155,165,172.5,172.5,375,SBD
2,Massimo Pottilius,M,2004-07-15,19,Belgium,Raw,Juniors,57.3,59,107.5,112.5,117.5,117.5,70,75,80,80,140,155,-162.5,155,352.5,SBD
1,Casper Schedin,M,2004-03-05,19,Belgium,Raw,Juniors,71.9,74,195,205,212.5,212.5,105,112.5,-117.5,112.5,-245,245,252.5,252.5,577.5,SBD
2,Haroen Ringoot,M,2000-10-23,22,Belgium,Raw,Juniors,72.9,74,145,155,162.5,162.5,105,112.5,-117.5,112.5,205,225,-232.5,225,500,SBD
3,Thiago Da Silva,M,2003-12-08,19,Belgium,Raw,Juniors,70.5,74,170,177.5,-182.5,177.5,100,-105,-107.5,100,205,215,220,220,497.5,SBD
4,Bachir Khatibi,M,2003-08-14,20,Belgium,Raw,Juniors,72.1,74,162.5,170,177.5,177.5,102.5,110,-117.5,110,190,197.5,205,205,492.5,SBD
5,Leandro Filipe De Jesus Teixeira,M,2002-02-24,21,Portugal,Raw,Juniors,73.1,74,-130,130,150,150,90,100,107.5,107.5,170,185,200,200,457.5,SBD
1,Lars Driezen,M,2000-02-15,23,Belgium,Raw,Juniors,82.3,83,157.5,165,180,180,132.5,137.5,142.5,142.5,240,260,270,270,592.5,SBD
2,Dylan Van Der Vurst,M,2002-01-16,21,Belgium,Raw,Juniors,81.4,83,172.5,180,185,185,125,132.5,140,140,235,250,260,260,585,SBD
3,Alexander De Roeck,M,2004-08-16,19,Belgium,Raw,Juniors,81,83,177.5,185,195,195,102.5,-107.5,107.5,107.5,202.5,217.5,-227.5,217.5,520,SBD
4,Kobe Grard,M,2004-08-30,19,Belgium,Raw,Juniors,83,83,175,187.5,-195,187.5,100,110,-120,110,195,210,220,220,517.5,SBD
5,Jasper Jordens,M,2001-07-19,22,Belgium,Raw,Juniors,81.4,83,150,160,170,170,100,105,-110,105,190,202.5,-207.5,202.5,477.5,SBD
6,Jashkaran Asra,M,2003-08-23,20,Belgium,Raw,Juniors,81.8,83,140,150,-155,150,115,-120,-120,115,195,205,-215,205,470,SBD
7,Niels Buekers,M,2000-10-09,22,Belgium,Raw,Juniors,78.1,83,130,-145,150,150,85,92.5,-97.5,92.5,175,190,200,200,442.5,SBD
8,Robbe Van Thillo,M,2000-11-02,22,Belgium,Raw,Juniors,74.9,83,132.5,140,147.5,147.5,95,-100,100,100,185,-197.5,-200,185,432.5,SBD
9,Guillaume Renty,M,2004-04-30,19,Belgium,Raw,Juniors,80.8,83,140,147.5,155,155,77.5,82.5,-90,82.5,145,157.5,170,170,407.5,SBD
10,Viktor Luykx,M,2004-11-17,18,Belgium,Raw,Juniors,76.1,83,130,-137.5,-140,130,72.5,77.5,82.5,82.5,157.5,165,175,175,387.5,SBD
NS,Faruk Bag,M,2001-06-18,22,Belgium,Raw,Juniors,76,83,,,,,,,,,,,,,,SBD
1,Rik De Grauwe,M,2000-05-16,23,Belgium,Raw,Juniors,85.9,93,185,195,-200,195,155,160,-167.5,160,225,-245,-245,225,580,SBD
2,Mateo Lopez,M,2003-09-19,19,Belgium,Raw,Juniors,90,93,180,190,200,200,115,120,127.5,127.5,225,237.5,245,245,572.5,SBD
3,Jerome Bertens,M,2003-06-07,20,Belgium,Raw,Juniors,89.2,93,200,210,217.5,217.5,110,-120,125,125,200,210,220,220,562.5,SBD
4,Faisal Ettarrahi,M,2004-06-12,19,Belgium,Raw,Juniors,88.6,93,165,175,185,185,110,117.5,125,125,200,-215,215,215,525,SBD
5,Lucas De Wever,M,2002-05-14,21,Belgium,Raw,Juniors,90.8,93,177.5,190,200,200,107.5,115,120,120,180,195,200,200,520,SBD
6,Emiel Vanherwegen,M,2003-07-22,20,Belgium,Raw,Juniors,89.9,93,160,170,-180,170,95,105,-110,105,190,210,220,220,495,SBD
7,Emilio Madera Y Diaz,M,2004-09-17,18,Belgium,Raw,Juniors,89.7,93,-155,-162.5,170,170,110,-120,-120,110,170,190,-200,190,470,SBD
8,Imrane El Marchouhi,M,2003-03-13,20,Belgium,Raw,Juniors,89.8,93,150,160,-165,160,82.5,87.5,92.5,92.5,185,200,215,215,467.5,SBD
9,Yannick Hens,M,2001-10-12,21,Belgium,Raw,Juniors,86.4,93,145,152.5,160,160,95,100,-105,100,165,175,185,185,445,SBD
1,Niels Ceuppens,M,2002-11-06,20,Belgium,Raw,Juniors,102.2,105,230,240,-250,240,175,193,,193,250,270,-272.5,270,703,SBD
2,Olivier Van den Broek,M,2001-06-15,22,Belgium,Raw,Juniors,102.1,105,205,215,225,225,-135,135,-140,135,210,227.5,240,240,600,SBD
3,Loïc Verbeke,M,2004-05-22,19,Belgium,Raw,Juniors,100.1,105,-195,195,205,205,127.5,132.5,135,135,230,250,-260,250,590,SBD
4,Michiel Borrenberghs,M,2001-12-09,21,Belgium,Raw,Juniors,103.6,105,190,197.5,205,205,102.5,110,117.5,117.5,207.5,217.5,225,225,547.5,SBD
5,Dylan Vandenabeel,M,2003-08-28,20,Belgium,Raw,Juniors,97.3,105,170,180,-190,180,100,105,110,110,225,237.5,-245,237.5,527.5,SBD
1,Noa Depaepe,M,2000-03-27,23,Belgium,Raw,Juniors,115.7,120,255,270,-280.5,270,142.5,147.5,150,150,280,-300,300,300,720,SBD
2,Beau Tavernier,M,2002-01-16,21,Belgium,Raw,Juniors,117.4,120,200,212.5,217.5,217.5,125,132.5,137.5,137.5,220,235,245,245,600,SBD
1,Ciprian Anghel,M,2001-04-18,22,Belgium,Raw,Juniors,131.4,120+,240,250,-255,250,135,-140,,135,240,-260,-260,240,625,SBD
NS,Gert D'Hollander,M,1979-01-16,44,Belgium,Raw,Masters 1,,,,,,,,,,,,,,,,SBD
1,Bertrand Rongé,M,1982-06-22,41,Belgium,Raw,Masters 1,65.4,66,125,130,135,135,-105,105,-113.5,105,150,160,-170,160,400,SBD
1,Kevin Van Parys,M,1983-03-10,40,Belgium,Raw,Masters 1,90.7,93,187.5,197.5,-205,197.5,-117.5,117.5,-125,117.5,207.5,217.5,227.5,227.5,542.5,SBD
1,Marc Vandewiele,M,1974-06-06,49,Belgium,Raw,Masters 1,104.5,105,245,260,270.5,270.5,137.5,145,147.5,147.5,280,300,307.5,307.5,725.5,SBD
2,Gaetan Timmerman,M,1978-06-19,45,Belgium,Raw,Masters 1,102.3,105,95,-100,100,100,100,105,-110,105,140,147.5,-155,147.5,352.5,SBD
1,Tirth Ram,M,1973-03-18,50,India,Raw,Masters 2,80.3,83,160,170,-172.5,170,137.5,142.5,-145,142.5,200,210,-212.5,210,522.5,SBD
1,Alain Neyt,M,1973-08-23,50,Belgium,Raw,Masters 2,92,93,135,145,155,155,140,145,150,150,180,195,205,205,510,SBD
1,Michaël Desmet,M,1971-04-22,52,Belgium,Raw,Masters 2,102.8,105,170,180,190,190,125,135,142.5,142.5,200,215,225,225,557.5,SBD
NS,Gert D'Hollander,M,1979-01-16,44,Belgium,Raw,Open,,,,,,,,,,,,,,,,SBD
1,Mauritz Van Impe,M,2004-11-13,18,Belgium,Raw,Open,57.8,59,110,125,132.5,132.5,70,-75,-75,70,155,165,172.5,172.5,375,SBD
2,Massimo Pottilius,M,2004-07-15,19,Belgium,Raw,Open,57.3,59,107.5,112.5,117.5,117.5,70,75,80,80,140,155,-162.5,155,352.5,SBD
1,Jahson Kamara,M,2005-12-09,17,Belgium,Raw,Open,63.6,66,152.5,160,165,165,-87.5,-90,90,90,175,185,-190,185,440,SBD
2,Bertrand Rongé,M,1982-06-22,41,Belgium,Raw,Open,65.4,66,125,130,135,135,-105,105,-113.5,105,150,160,-170,160,400,SBD
1,Jorne Feijaerts,M,1995-12-16,27,Belgium,Raw,Open,73.9,74,200,210,215,215,120,-122.5,-122.5,120,250,-270,,250,585,SBD
2,Casper Schedin,M,2004-03-05,19,Belgium,Raw,Open,71.9,74,195,205,212.5,212.5,105,112.5,-117.5,112.5,-245,245,252.5,252.5,577.5,SBD
3,Dylan Doumont,M,1997-06-09,26,Belgium,Raw,Open,72,74,162.5,172.5,180,180,112.5,117.5,122.5,122.5,210,225,-240,225,527.5,SBD
4,Kamil Wejman,M,1988-02-13,35,Poland,Raw,Open,67.1,74,175,182.5,190,190,115,122.5,127.5,127.5,200,205,-210,205,522.5,SBD
5,Dimas De Ridder,M,1998-04-05,25,Belgium,Raw,Open,73.4,74,185,192.5,-195,192.5,105,110,-112.5,110,210,220,-227.5,220,522.5,SBD
6,Hans Van der Staak,M,1999-10-22,23,Belgium,Raw,Open,66.3,74,150,157.5,162.5,162.5,110,115,-120,115,200,222.5,,222.5,500,SBD
7,Haroen Ringoot,M,2000-10-23,22,Belgium,Raw,Open,72.9,74,145,155,162.5,162.5,105,112.5,-117.5,112.5,205,225,-232.5,225,500,SBD
8,Thiago Da Silva,M,2003-12-08,19,Belgium,Raw,Open,70.5,74,170,177.5,-182.5,177.5,100,-105,-107.5,100,205,215,220,220,497.5,SBD
9,Bachir Khatibi,M,2003-08-14,20,Belgium,Raw,Open,72.1,74,162.5,170,177.5,177.5,102.5,110,-117.5,110,190,197.5,205,205,492.5,SBD
10,Ilyas Spiessens,M,1993-08-17,30,Belgium,Raw,Open,73,74,155,165,172.5,172.5,110,115,117.5,117.5,165,175,182.5,182.5,472.5,SBD
11,Leandro Filipe De Jesus Teixeira,M,2002-02-24,21,Portugal,Raw,Open,73.1,74,-130,130,150,150,90,100,107.5,107.5,170,185,200,200,457.5,SBD
12,Quinten Lemmens,M,1999-10-18,23,Belgium,Raw,Open,73.1,74,140,150,155,155,95,100,-102.5,100,165,175,180,180,435,SBD
13,Andreas Smets,M,2005-05-02,18,Belgium,Raw,Open,72.1,74,155,165,172.5,172.5,77.5,85,-92.5,85,160,-167.5,172.5,172.5,430,SBD
14,Sybren Desoete,M,2007-04-04,16,Belgium,Raw,Open,73,74,132.5,-140,145,145,82.5,90,92.5,92.5,155,170,182.5,182.5,420,SBD
15,Ben De Witte,M,1992-12-11,30,Belgium,Raw,Open,71.5,74,120,127.5,135,135,70,-75,,70,200,205,210,210,415,SBD
16,Brendon De Wit,M,1993-02-09,30,Belgium,Raw,Open,69.3,74,-125,125,-130,125,77.5,82.5,-87.5,82.5,165,177.5,195,195,402.5,SBD
17,Jorne Guldix,M,2005-09-29,17,Belgium,Raw,Open,69,74,135,145,-152.5,145,85,-90,90,90,140,155,165,165,400,SBD
1,Alex Coppens,M,1997-04-15,26,Belgium,Raw,Open,81.5,83,190,202.5,210,210,140,142.5,-145,142.5,220,235,247.5,247.5,600,SBD
2,Lars Driezen,M,2000-02-15,23,Belgium,Raw,Open,82.3,83,157.5,165,180,180,132.5,137.5,142.5,142.5,240,260,270,270,592.5,SBD
3,Jeremie Nyengele-Tshinkunku,M,1988-11-22,34,Belgium,Raw,Open,82.1,83,195,205,215,215,112.5,115,-120,115,245,260,-270,260,590,SBD
4,Aaron Messiant,M,1995-05-28,28,Belgium,Raw,Open,82.5,83,190,-197.5,200,200,-135,135,-137.5,135,240,255,-260,255,590,SBD
5,Cristian Rebolledo Espinoza,M,1994-10-04,28,Chile,Raw,Open,78.8,83,185,205,-217.5,205,127.5,135,-140,135,235,245,-260,245,585,SBD
6,Dylan Van Der Vurst,M,2002-01-16,21,Belgium,Raw,Open,81.4,83,172.5,180,185,185,125,132.5,140,140,235,250,260,260,585,SBD
7,Stijn Vanheste,M,1991-04-12,32,Belgium,Raw,Open,82.4,83,200,212.5,217.5,217.5,115,-120,122.5,122.5,215,230,240,240,580,SBD
8,Jany Krijnen,M,1999-04-29,24,Belgium,Raw,Open,82.5,83,172.5,180,185,185,130,135,140,140,202.5,215,225,225,550,SBD
9,Brent Goossens,M,1997-04-23,26,Belgium,Raw,Open,79.4,83,185,200,205,205,112.5,117.5,-120,117.5,205,215,222.5,222.5,545,SBD
10,Tom Van Hove,M,1999-07-20,24,Belgium,Raw,Open,82.9,83,200,210,-215,210,115,120,125,125,185,195,-202.5,195,530,SBD
11,Tirth Ram,M,1973-03-18,50,India,Raw,Open,80.3,83,160,170,-172.5,170,137.5,142.5,-145,142.5,200,210,-212.5,210,522.5,SBD
12,Alexander De Roeck,M,2004-08-16,19,Belgium,Raw,Open,81,83,177.5,185,195,195,102.5,-107.5,107.5,107.5,202.5,217.5,-227.5,217.5,520,SBD
13,Kobe Grard,M,2004-08-30,19,Belgium,Raw,Open,83,83,175,187.5,-195,187.5,100,110,-120,110,195,210,220,220,517.5,SBD
14,Thibeau Zancaner,M,1998-05-04,25,Belgium,Raw,Open,82.1,83,167.5,175,182.5,182.5,110,115,117.5,117.5,190,200,205,205,505,SBD
15,Midas Opsomer,M,2005-06-28,18,Belgium,Raw,Open,77,83,175,177.5,190,190,110,-117.5,-117.5,110,175,187.5,192.5,192.5,492.5,SBD
16,Dario Gyselinck,M,2005-04-14,18,Belgium,Raw,Open,81.7,83,147.5,157.5,162.5,162.5,100,105,107.5,107.5,200,215,-227.5,215,485,SBD
17,Huseyin Lafci,M,1990-10-04,32,Belgium,Raw,Open,81.7,83,160,165,-170,165,92.5,100,-105,100,210,220,-230,220,485,SBD
18,Jasper Jordens,M,2001-07-19,22,Belgium,Raw,Open,81.4,83,150,160,170,170,100,105,-110,105,190,202.5,-207.5,202.5,477.5,SBD
19,Twan Zwarts,M,2005-04-08,18,Belgium,Raw,Open,79.4,83,167.5,175,-182.5,175,-100,-100,100,100,175,185,195,195,470,SBD
20,Jashkaran Asra,M,2003-08-23,20,Belgium,Raw,Open,81.8,83,140,150,-155,150,115,-120,-120,115,195,205,-215,205,470,SBD
21,Jasper Vanhoutte,M,1995-04-27,28,Belgium,Raw,Open,81.9,83,150,157.5,165,165,-85,-92.5,92.5,92.5,200,-210,-210,200,457.5,SBD
22,Tibo Jacobs,M,1999-09-02,24,Belgium,Raw,Open,81.1,83,-155,160,-165,160,110,-112.5,-112.5,110,167.5,175,185,185,455,SBD
23,Niels Buekers,M,2000-10-09,22,Belgium,Raw,Open,78.1,83,130,-145,150,150,85,92.5,-97.5,92.5,175,190,200,200,442.5,SBD
24,Tijl Cresens,M,2005-02-04,18,Belgium,Raw,Open,82,83,120,,,120,120,132.5,142.5,142.5,180,,,180,442.5,SBD
25,Steven Monsieur,M,1988-04-04,35,Belgium,Raw,Open,81.6,83,170,180,187.5,187.5,122.5,125,127.5,127.5,125,,,125,440,SBD
26,Hendrik Coppieters,M,2005-01-17,18,Belgium,Raw,Open,79.9,83,127.5,137.5,145,145,92.5,97.5,105,105,167.5,180,187.5,187.5,437.5,SBD
27,Keano Vansteenbrugge,M,1996-10-01,26,Belgium,Raw,Open,76.6,83,130,140,147.5,147.5,100,107.5,112.5,112.5,145,160,175,175,435,SBD
28,Robbe Van Thillo,M,2000-11-02,22,Belgium,Raw,Open,74.9,83,132.5,140,147.5,147.5,95,-100,100,100,185,-197.5,-200,185,432.5,SBD
29,Lasse Willems,M,2007-04-03,16,Belgium,Raw,Open,79.4,83,132.5,142.5,152.5,152.5,92.5,97.5,100,100,160,175,-185,175,427.5,SBD
30,Guillaume Renty,M,2004-04-30,19,Belgium,Raw,Open,80.8,83,140,147.5,155,155,77.5,82.5,-90,82.5,145,157.5,170,170,407.5,SBD
31,Luca Ferrari,M,2006-05-29,17,France,Raw,Open,79.8,83,147.5,-152.5,152.5,152.5,100,-105,-105,100,150,-160,-160,150,402.5,SBD
32,Viktor Luykx,M,2004-11-17,18,Belgium,Raw,Open,76.1,83,130,-137.5,-140,130,72.5,77.5,82.5,82.5,157.5,165,175,175,387.5,SBD
33,Edgar Vansimaeys,M,2007-07-20,16,Belgium,Raw,Open,77.9,83,100,110,120,120,-62.5,-65,65,65,75,,,75,260,SBD
NS,Faruk Bag,M,2001-06-18,22,Belgium,Raw,Open,76,83,,,,,,,,,,,,,,SBD
DQ,Brent Vanhees,M,1995-01-13,28,Belgium,Raw,Open,77.1,83,-190,-190,-190,,105,112.5,117.5,117.5,215,227.5,237.5,237.5,,SBD
DQ,Furkan Bilican,M,1999-12-21,23,Belgium,Raw,Open,82.5,83,230,240,250,250,140,150,-157.5,150,-230,-230,-230,,,SBD
1,Ward Van Den Abeele,M,1994-01-14,29,Belgium,Raw,Open,89.3,93,192.5,212.5,222.5,222.5,-127.5,127.5,132.5,132.5,260,275,282.5,282.5,637.5,SBD
2,Jonas Palinckx,M,1987-07-04,36,Belgium,Raw,Open,86.4,93,200,210,220,220,-100,110,120,120,210,230,260,260,600,SBD
3,Rik De Grauwe,M,2000-05-16,23,Belgium,Raw,Open,85.9,93,185,195,-200,195,155,160,-167.5,160,225,-245,-245,225,580,SBD
4,Wesley Pultyn,M,1998-11-18,24,Belgium,Raw,Open,91.1,93,175,185,195,195,142.5,150,,150,210,222.5,235,235,580,SBD
5,Mateo Lopez,M,2003-09-19,19,Belgium,Raw,Open,90,93,180,190,200,200,115,120,127.5,127.5,225,237.5,245,245,572.5,SBD
6,Ryan Murphy #1,M,1988-05-05,35,Ireland,Raw,Open,91.4,93,185,195,202.5,202.5,120,130,-132.5,130,215,217.5,235,235,567.5,SBD
7,Leonard Martens,M,2005-08-08,18,Belgium,Raw,Open,89.9,93,165,175,182.5,182.5,110,117.5,125,125,-240,257.5,-273.5,257.5,565,SBD
8,Jerome Bertens,M,2003-06-07,20,Belgium,Raw,Open,89.2,93,200,210,217.5,217.5,110,-120,125,125,200,210,220,220,562.5,SBD
9,Gabriel Caushi,M,2006-11-29,16,Belgium,Raw,Open,89.1,93,170,180,190,190,125,132.5,-140,132.5,200,215,230,230,552.5,SBD
10,Matthias Vandaele,M,1991-12-19,31,Belgium,Raw,Open,91.2,93,185,195,-205,195,130,137.5,-142.5,137.5,205,220,-235,220,552.5,SBD
11,Kevin Van Parys,M,1983-03-10,40,Belgium,Raw,Open,90.7,93,187.5,197.5,-205,197.5,-117.5,117.5,-125,117.5,207.5,217.5,227.5,227.5,542.5,SBD
12,Faisal Ettarrahi,M,2004-06-12,19,Belgium,Raw,Open,88.6,93,165,175,185,185,110,117.5,125,125,200,-215,215,215,525,SBD
13,Lucas De Wever,M,2002-05-14,21,Belgium,Raw,Open,90.8,93,177.5,190,200,200,107.5,115,120,120,180,195,200,200,520,SBD
14,Alain Neyt,M,1973-08-23,50,Belgium,Raw,Open,92,93,135,145,155,155,140,145,150,150,180,195,205,205,510,SBD
15,Emiel Vanherwegen,M,2003-07-22,20,Belgium,Raw,Open,89.9,93,160,170,-180,170,95,105,-110,105,190,210,220,220,495,SBD
16,Oliver Doyen,M,2007-05-24,16,Belgium,Raw,Open,91.4,93,-165,172.5,-177.5,172.5,110,-115,115,115,175,187.5,190,190,477.5,SBD
17,Emilio Madera Y Diaz,M,2004-09-17,18,Belgium,Raw,Open,89.7,93,-155,-162.5,170,170,110,-120,-120,110,170,190,-200,190,470,SBD
18,Imrane El Marchouhi,M,2003-03-13,20,Belgium,Raw,Open,89.8,93,150,160,-165,160,82.5,87.5,92.5,92.5,185,200,215,215,467.5,SBD
19,Jeroen Leemans,M,1986-12-08,36,Belgium,Raw,Open,83.6,93,150,160,165,165,125,130,-132.5,130,160,170,-175,170,465,SBD
20,Robbe Noyens,M,2005-07-20,18,Belgium,Raw,Open,91.2,93,152.5,160,170,170,92.5,97.5,100,100,170,180,187.5,187.5,457.5,SBD
21,Wolf-Simon Fleuren,M,1998-12-22,24,Belgium,Raw,Open,88.3,93,135,145,152.5,152.5,90,100,-105,100,185,192.5,197.5,197.5,450,SBD
22,Yannick Hens,M,2001-10-12,21,Belgium,Raw,Open,86.4,93,145,152.5,160,160,95,100,-105,100,165,175,185,185,445,SBD
23,Roy Mortier,M,2005-01-04,18,Belgium,Raw,Open,88.5,93,135,142.5,147.5,147.5,85,-92.5,92.5,92.5,180,192.5,200,200,440,SBD
24,Olivier Vanheste,M,1993-03-16,30,Belgium,Raw,Open,87.1,93,125,127.5,135,135,80,-85,87.5,87.5,140,150,157.5,157.5,380,SBD
DQ,Dennis Louagie,M,1991-06-04,32,Belgium,Raw,Open,92.5,93,195,210,217.5,217.5,-135,-135,-135,,245,-255,-255,245,,SBD
1,Marc Vandewiele,M,1974-06-06,49,Belgium,Raw,Open,104.5,105,245,260,270.5,270.5,137.5,145,147.5,147.5,280,300,307.5,307.5,725.5,SBD
2,Niels Ceuppens,M,2002-11-06,20,Belgium,Raw,Open,102.2,105,230,240,-250,240,175,193,,193,250,270,-272.5,270,703,SBD
3,Niels Boermans,M,1992-07-23,31,Belgium,Raw,Open,103.4,105,205,212.5,220,220,160,167.5,175,175,220,235,250,250,645,SBD
4,Pieter Van Overbeke,M,1997-06-12,26,Belgium,Raw,Open,101.2,105,195,207.5,-215,207.5,140,147.5,152.5,152.5,240,-260,-270,240,600,SBD
5,Olivier Van den Broek,M,2001-06-15,22,Belgium,Raw,Open,102.1,105,205,215,225,225,-135,135,-140,135,210,227.5,240,240,600,SBD
6,Loïc Verbeke,M,2004-05-22,19,Belgium,Raw,Open,100.1,105,-195,195,205,205,127.5,132.5,135,135,230,250,-260,250,590,SBD
7,Wouter Vertessen,M,1997-09-26,25,Belgium,Raw,Open,101,105,210,217.5,-225,217.5,122.5,127.5,-132.5,127.5,235,245,-257.5,245,590,SBD
8,Arne Snauwaert,M,1992-08-21,31,Belgium,Raw,Open,96.2,105,195,205,212.5,212.5,130,135,142.5,142.5,220,230,-240,230,585,SBD
9,Koen Sels,M,1998-08-29,25,Belgium,Raw,Open,104.6,105,205,215,225,225,110,115,-120,115,230,245,-260,245,585,SBD
10,Yarni D'Haeseleer,M,1999-06-15,24,Belgium,Raw,Open,102.3,105,210,-217.5,-220,210,-120,122.5,-127.5,122.5,247.5,-260,-260,247.5,580,SBD
11,Kenneth Maes,M,1993-10-30,29,Belgium,Raw,Open,93.1,105,-165,170,175,175,140,147.5,-152.5,147.5,245,-255,-260,245,567.5,SBD
12,Michaël Desmet,M,1971-04-22,52,Belgium,Raw,Open,102.8,105,170,180,190,190,125,135,142.5,142.5,200,215,225,225,557.5,SBD
13,Michiel Borrenberghs,M,2001-12-09,21,Belgium,Raw,Open,103.6,105,190,197.5,205,205,102.5,110,117.5,117.5,207.5,217.5,225,225,547.5,SBD
14,Nathaniel Fernandez,M,2005-08-14,18,Belgium,Raw,Open,98.3,105,195,200,-205,200,100,105,110,110,210,230,-246,230,540,SBD
15,Dylan Vandenabeel,M,2003-08-28,20,Belgium,Raw,Open,97.3,105,170,180,-190,180,100,105,110,110,225,237.5,-245,237.5,527.5,SBD
16,Bjorn Notermans,M,1998-05-04,25,Netherlands,Raw,Open,95,105,177.5,190,-200,190,117.5,-125,-125,117.5,200,-212.5,-212.5,200,507.5,SBD
17,Tim Vanherwegen,M,1999-04-16,24,Belgium,Raw,Open,100.9,105,150,-160,160,160,100,107.5,-110,107.5,190,205,-220,205,472.5,SBD
18,Gaetan Timmerman,M,1978-06-19,45,Belgium,Raw,Open,102.3,105,95,-100,100,100,100,105,-110,105,140,147.5,-155,147.5,352.5,SBD
NS,Jasper Vermeire,M,1996-11-19,26,Belgium,Raw,Open,95.1,105,,,,,,,,,,,,,,SBD
1,Noa Depaepe,M,2000-03-27,23,Belgium,Raw,Open,115.7,120,255,270,-280.5,270,142.5,147.5,150,150,280,-300,300,300,720,SBD
2,Robin Venneman,M,1993-11-01,29,Belgium,Raw,Open,118.6,120,230,240,245,245,150,155,160,160,250,270,277.5,277.5,682.5,SBD
3,Raf Scheers,M,1994-06-27,29,Belgium,Raw,Open,112.4,120,185,197.5,-202.5,197.5,142.5,150,155,155,225,242.5,252.5,252.5,605,SBD
4,Beau Tavernier,M,2002-01-16,21,Belgium,Raw,Open,117.4,120,200,212.5,217.5,217.5,125,132.5,137.5,137.5,220,235,245,245,600,SBD
5,Rinus Jacobs,M,1989-11-13,33,Belgium,Raw,Open,112.8,120,180,190,,190,130,137.5,,137.5,220,235,-245,235,562.5,SBD
6,Nicola Ciola,M,1988-01-14,35,Belgium,Raw,Open,106.6,120,200,210,220,220,130,137.5,-142.5,137.5,190,200,-210,200,557.5,SBD
7,Yannick Schoefs,M,2005-10-22,17,Belgium,Raw,Open,110.2,120,180,190,202.5,202.5,112.5,-122.5,122.5,122.5,210,222.5,230,230,555,SBD
NS,Jeroen Van Heesvelde,M,1990-06-14,33,Belgium,Raw,Open,108.6,120,,,,,,,,,,,,,,SBD
NS,Jochen Strubbe,M,1998-12-11,24,Belgium,Raw,Open,117.1,120,,,,,,,,,,,,,,SBD
1,Olivier Vervalle,M,1996-06-27,27,Belgium,Raw,Open,122.8,120+,295,310,325,325,205,215,220,220,320,342.5,-350,342.5,887.5,SBD
2,Ciprian Anghel,M,2001-04-18,22,Belgium,Raw,Open,131.4,120+,240,250,-255,250,135,-140,,135,240,-260,-260,240,625,SBD
1,Jahson Kamara,M,2005-12-09,17,Belgium,Raw,Sub-Juniors,63.6,66,152.5,160,165,165,-87.5,-90,90,90,175,185,-190,185,440,SBD
1,Andreas Smets,M,2005-05-02,18,Belgium,Raw,Sub-Juniors,72.1,74,155,165,172.5,172.5,77.5,85,-92.5,85,160,-167.5,172.5,172.5,430,SBD
2,Sybren Desoete,M,2007-04-04,16,Belgium,Raw,Sub-Juniors,73,74,132.5,-140,145,145,82.5,90,92.5,92.5,155,170,182.5,182.5,420,SBD
3,Jorne Guldix,M,2005-09-29,17,Belgium,Raw,Sub-Juniors,69,74,135,145,-152.5,145,85,-90,90,90,140,155,165,165,400,SBD
1,Midas Opsomer,M,2005-06-28,18,Belgium,Raw,Sub-Juniors,77,83,175,177.5,190,190,110,-117.5,-117.5,110,175,187.5,192.5,192.5,492.5,SBD
2,Dario Gyselinck,M,2005-04-14,18,Belgium,Raw,Sub-Juniors,81.7,83,147.5,157.5,162.5,162.5,100,105,107.5,107.5,200,215,-227.5,215,485,SBD
3,Twan Zwarts,M,2005-04-08,18,Belgium,Raw,Sub-Juniors,79.4,83,167.5,175,-182.5,175,-100,-100,100,100,175,185,195,195,470,SBD
4,Tijl Cresens,M,2005-02-04,18,Belgium,Raw,Sub-Juniors,82,83,120,,,120,120,132.5,142.5,142.5,180,,,180,442.5,SBD
5,Hendrik Coppieters,M,2005-01-17,18,Belgium,Raw,Sub-Juniors,79.9,83,127.5,137.5,145,145,92.5,97.5,105,105,167.5,180,187.5,187.5,437.5,SBD
6,Lasse Willems,M,2007-04-03,16,Belgium,Raw,Sub-Juniors,79.4,83,132.5,142.5,152.5,152.5,92.5,97.5,100,100,160,175,-185,175,427.5,SBD
7,Luca Ferrari,M,2006-05-29,17,France,Raw,Sub-Juniors,79.8,83,147.5,-152.5,152.5,152.5,100,-105,-105,100,150,-160,-160,150,402.5,SBD
8,Edgar Vansimaeys,M,2007-07-20,16,Belgium,Raw,Sub-Juniors,77.9,83,100,110,120,120,-62.5,-65,65,65,75,,,75,260,SBD
1,Leonard Martens,M,2005-08-08,18,Belgium,Raw,Sub-Juniors,89.9,93,165,175,182.5,182.5,110,117.5,125,125,-240,257.5,-273.5,257.5,565,SBD
2,Gabriel Caushi,M,2006-11-29,16,Belgium,Raw,Sub-Juniors,89.1,93,170,180,190,190,125,132.5,-140,132.5,200,215,230,230,552.5,SBD
3,Oliver Doyen,M,2007-05-24,16,Belgium,Raw,Sub-Juniors,91.4,93,-165,172.5,-177.5,172.5,110,-115,115,115,175,187.5,190,190,477.5,SBD
4,Robbe Noyens,M,2005-07-20,18,Belgium,Raw,Sub-Juniors,91.2,93,152.5,160,170,170,92.5,97.5,100,100,170,180,187.5,187.5,457.5,SBD
5,Roy Mortier,M,2005-01-04,18,Belgium,Raw,Sub-Juniors,88.5,93,135,142.5,147.5,147.5,85,-92.5,92.5,92.5,180,192.5,200,200,440,SBD
1,Nathaniel Fernandez,M,2005-08-14,18,Belgium,Raw,Sub-Juniors,98.3,105,195,200,-205,200,100,105,110,110,210,230,-246,230,540,SBD
1,Yannick Schoefs,M,2005-10-22,17,Belgium,Raw,Sub-Juniors,110.2,120,180,190,202.5,202.5,112.5,-122.5,122.5,122.5,210,222.5,230,230,555,SBD
1,Milan Vyncke,M,2004-10-04,18,Belgium,Raw,Juniors,72,74,,,,,125,132.5,140,140,,,,,140,B
1,Milan Vyncke,M,2004-10-04,18,Belgium,Raw,Open,72,74,,,,,125,132.5,140,140,,,,,140,B
2,Osman Balci,M,2006-06-05,17,Belgium,Raw,Open,72.8,74,,,,,120,-125,125,125,,,,,125,B
1,Lieven De Saedeleer,M,1988-03-08,35,Belgium,Raw,Open,101.4,105,,,,,170,177.5,182.5,182.5,,,,,182.5,B
2,Reinout De Saedeleer,M,1994-04-01,29,Belgium,Raw,Open,99.7,105,,,,,142.5,147.5,150,150,,,,,150,B
1,Wouter De Saedeleer,M,1985-10-20,37,Belgium,Raw,Open,117.5,120,,,,,202.5,210,217.5,217.5,,,,,217.5,B
1,Osman Balci,M,2006-06-05,17,Belgium,Raw,Sub-Juniors,72.8,74,,,,,120,-125,125,125,,,,,125,B
