Division,WeightClassKg,Place,Name,Team,BodyweightKg,Best3SquatKg,Best3BenchKg,Best3DeadliftKg,TotalKg,Equipment,Event,Sex,BirthDate
Boys,51.71,1,Jeremiah Kennebrew,Newton,46.86,92.99,61.23,106.59,260.82,Unlimited,SBD,M,
Boys,55.79,1,Phoenix Marquez,Trinity,55.79,124.74,79.38,133.81,337.93,Unlimited,SBD,M,
Boys,55.79,2,Tj Trione,Warren,54.34,127.01,65.77,136.08,328.85,Unlimited,SBD,M,
Boys,55.79,3,Hunter Ard,Warren,53.71,117.93,65.77,124.74,308.44,Unlimited,SBD,M,
Boys,55.79,4,Mason Russell,Newton,52.62,95.25,58.97,97.52,251.74,Unlimited,SBD,M,
Boys,59.87,1,Wyatt Bennett,Trinity,59.78,136.08,81.65,142.88,360.61,Unlimited,SBD,M,
Boys,67.13,1,Brayden Yawn,Warren,67.13,136.08,90.72,136.08,362.87,Unlimited,SBD,M,
Boys,67.13,2,Levi Couey,Newton,66.32,145.15,79.38,136.08,360.61,Unlimited,SBD,M,
Boys,67.13,3,Ethan Shird,Woodville,64.95,111.13,77.11,142.88,331.12,Unlimited,SBD,M,
Boys,67.13,4,Ben Kauffman,Trinity,63.87,102.06,63.5,149.69,315.25,Unlimited,SBD,M,
Boys,67.13,DQ,Keyston Wells,Trinity,61.51,,,,,Unlimited,SBD,M,
Boys,74.84,1,Shandon Wiseman,Newton,74.43,136.08,79.38,190.51,405.97,Unlimited,SBD,M,
Boys,74.84,2,McCain Zach,Newton,73.48,151.95,79.38,167.83,399.16,Unlimited,SBD,M,
Boys,74.84,3,Zach Redwine,Warren,72.94,145.15,88.45,142.88,376.48,Unlimited,SBD,M,
Boys,74.84,4,Martin Anaya,Newton,71.67,124.74,74.84,149.69,349.27,Unlimited,SBD,M,
Boys,74.84,5,Kaleb Howard,Crockett,71.49,83.91,49.9,104.33,238.14,Unlimited,SBD,M,
Boys,82.1,1,Zayon Williams,Woodville,80.29,265.35,142.88,265.35,673.58,Unlimited,SBD,M,
Boys,82.1,2,Alonzo Cervantes,Crockett,80.1,206.38,127.01,249.48,582.87,Unlimited,SBD,M,
Boys,82.1,3,Ivan Gatson,Newton,79.61,158.76,90.72,185.97,435.45,Unlimited,SBD,M,
Boys,82.1,4,Ian Puckett,Trinity,76.93,170.1,113.4,149.69,433.18,Unlimited,SBD,M,
Boys,82.1,5,James Barlow,Warren,78.47,154.22,92.99,161.03,408.23,Unlimited,SBD,M,
Boys,82.1,6,Chad Lawson,Warren,78.93,138.35,97.52,142.88,378.75,Unlimited,SBD,M,
Boys,82.1,7,Marc Sanchez,Woodville,78.29,136.08,86.18,151.95,374.21,Unlimited,SBD,M,
Boys,82.1,8,Kyran Bennett,Newton,75.48,151.95,74.84,136.08,362.87,Unlimited,SBD,M,
Boys,82.1,9,Isaac Allen,Warren,81.47,113.4,79.38,129.27,322.05,Unlimited,SBD,M,
Boys,89.81,1,David McKendree,Trinity,88.9,226.8,183.7,226.8,637.3,Unlimited,SBD,M,
Boys,89.81,2,Peter Redecop,Warren,85.91,204.12,122.47,199.58,526.17,Unlimited,SBD,M,
Boys,89.81,3,Braylon Watson,Newton,83.19,165.56,113.4,204.12,483.08,Unlimited,SBD,M,
Boys,89.81,4,Ethan Bourdonnay,Beaumont Monsignor Kelly,82.46,158.76,108.86,183.7,451.32,Unlimited,SBD,M,
Boys,89.81,5,Robert Mounsey,Trinity,83.73,142.88,102.06,154.22,399.16,Unlimited,SBD,M,
Boys,89.81,6,Thaddeus Haynes,Crockett,88.72,90.72,61.23,111.13,263.08,Unlimited,SBD,M,
Boys,99.79,1,Jonathan Kenebrew,Newton,95.3,240.4,145.15,240.4,625.96,Unlimited,SBD,M,
Boys,99.79,2,Antrevion Gatson,Newton,92.12,229.06,108.86,229.06,566.99,Unlimited,SBD,M,
Boys,99.79,3,Dannin Spikes,Newton,98.16,188.24,104.33,229.06,521.63,Unlimited,SBD,M,
Boys,99.79,4,Lane Ledoux,Woodville,93.53,217.72,90.72,197.31,505.76,Unlimited,SBD,M,
Boys,99.79,5,Joe Smith,Newton,94.94,183.7,108.86,181.44,474,Unlimited,SBD,M,
Boys,99.79,6,Samuel Davis,Newton,94.21,151.95,95.25,195.04,442.25,Unlimited,SBD,M,
Boys,99.79,7,Josue Salazar,Crockett,96.16,167.83,104.33,163.29,435.45,Unlimited,SBD,M,
Boys,99.79,8,Irving Gattica,Beaumont Monsignor Kelly,93.8,176.9,102.06,149.69,428.64,Unlimited,SBD,M,
Boys,99.79,9,Zach Dubose,Newton,95.44,158.76,113.4,154.22,426.38,Unlimited,SBD,M,
Boys,99.79,10,Slayden Craft,Newton,92.94,158.76,74.84,170.1,403.7,Unlimited,SBD,M,
Boys,99.79,11,Brock Johnson,Newton,98.2,151.95,92.99,138.35,383.29,Unlimited,SBD,M,
Boys,99.79,12,Josh Smith,Newton,99.74,154.22,81.65,145.15,381.02,Unlimited,SBD,M,
Boys,109.77,1,RChon Washington,Newton,104.83,226.8,136.08,240.4,603.28,Unlimited,SBD,M,
Boys,109.77,2,CJ Beatty,Newton,108.95,215.46,106.59,185.97,508.02,Unlimited,SBD,M,
Boys,109.77,3,Shawn Dubose,Newton,103.78,151.95,102.06,165.56,419.57,Unlimited,SBD,M,
Boys,109.77,4,Cayden Mcgough,Woodville,101.42,151.95,92.99,142.88,387.82,Unlimited,SBD,M,
Boys,109.77,5,Jesus Moreno,Crockett,106.96,124.74,77.11,158.76,360.61,Unlimited,SBD,M,
Boys,109.77,6,Javon Johnson,Crockett,109.04,106.59,61.23,115.67,283.5,Unlimited,SBD,M,
Boys,109.77,DQ,Chaz Gray,Crockett,107.5,,81.65,170.1,,Unlimited,SBD,M,
Boys,124.74,1,Evan Soto,Beaumont Monsignor Kelly,111.31,197.31,108.86,195.04,501.22,Unlimited,SBD,M,
Boys,124.74,2,Anthony Sekulich,Warren,119.57,181.44,120.2,163.29,464.93,Unlimited,SBD,M,
Boys,124.74,3,Emmanuel Salazar,Crockett,120.38,165.56,92.99,165.56,424.11,Unlimited,SBD,M,
Boys,124.74,4,Jayvien Davila,Newton,124.28,163.29,92.99,161.03,417.3,Unlimited,SBD,M,
Boys,124.74,5,Drayden King,Newton,119.84,158.76,113.4,138.35,410.5,Unlimited,SBD,M,
Boys,139.71,1,Bart Sylestine,Woodville,134.63,278.96,147.42,274.42,700.8,Unlimited,SBD,M,
Boys,139.71,2,Emmanul Hernandez,Newton,127.91,272.16,158.76,249.48,680.39,Unlimited,SBD,M,
Boys,139.71,3,Jared Schmidt,Newton,132.45,217.72,136.08,204.12,557.92,Unlimited,SBD,M,
Boys,139.71,4,Jonathan Faircloth,Trinity,126.28,192.78,104.33,183.7,480.81,Unlimited,SBD,M,
Boys,139.71,5,Cole Walters,Warren,137.89,156.49,106.59,170.1,433.18,Unlimited,SBD,M,
Boys,139.71+,1,Hunter Williams,Newton,147.87,235.87,158.76,238.14,632.76,Unlimited,SBD,M,
Boys,,NS,Josue Cruz Carcamo,Crockett,,,,,,Unlimited,SBD,M,
Boys,,NS,Rocky Sanchez,Houston Eisenhower,,,,,,Unlimited,SBD,M,
Boys,,NS,Joe Landeros,Houston Eisenhower,,,,,,Unlimited,SBD,M,
Boys,,NS,Marcus Potts,Houston Eisenhower,,,,,,Unlimited,SBD,M,
Boys,,NS,Braylon Alvis,Houston Eisenhower,,,,,,Unlimited,SBD,M,
Boys,,NS,Gerinho Lima,Houston Eisenhower,,,,,,Unlimited,SBD,M,
Boys,,NS,Logan Draper,Houston Eisenhower,,,,,,Unlimited,SBD,M,
Boys,,NS,Qution Frerich,Warren,,,,,,Unlimited,SBD,M,
Boys,,NS,Bryar Stewart,Warren,,,,,,Unlimited,SBD,M,
Boys,,NS,Chris Dudley,Trinity,,,,,,Unlimited,SBD,M,
Boys,,NS,Jayden Ford,Trinity,,,,,,Unlimited,SBD,M,
Boys,,NS,John Carlson,Trinity,,,,,,Unlimited,SBD,M,
Boys,,NS,Jacob Lopez,Trinity,,,,,,Unlimited,SBD,M,
Boys,,NS,Aiden Weeks,Woodville,,,,,,Unlimited,SBD,M,
Boys,,NS,Jameus Harrod,Warren,,,,,,Unlimited,SBD,M,
Boys,,NS,Christy Marek,Warren,,,,,,Unlimited,SBD,M,
Boys,,NS,Lowell Tompkins,Woodville,,,,,,Unlimited,SBD,M,
Boys,,NS,Zane Leary,Woodville,,,,,,Unlimited,SBD,M,
