Division,WeightClassKg,Place,Name,Team,BodyweightKg,Best3SquatKg,Best3BenchKg,Best3DeadliftKg,TotalKg,Equipment,Event,Sex,BirthDate
Boys,51.71,1,Monte Kerr,Iowa Park,51.26,167.83,102.06,167.83,437.72,Unlimited,SBD,M,
Boys,51.71,2,Colby Murphey,Ponder,51.71,142.88,90.72,151.95,385.55,Unlimited,SBD,M,
Boys,51.71,3,Weston Porter,Millsap,47.63,149.69,95.25,129.27,374.21,Unlimited,SBD,M,
Boys,51.71,4,Gonzalo Ortiz,Dublin,49.44,147.42,72.57,136.08,356.07,Unlimited,SBD,M,
Boys,51.71,5,Michael Ledesma,Wichita Falls City View,51.26,124.74,68.04,127.01,319.78,Unlimited,SBD,M,
Boys,51.71,6,Cole Krouskup,Pilot Point,51.71,113.4,74.84,131.54,319.78,Unlimited,SBD,M,
Boys,51.71,7,Trevin McAlmond,Breckenridge,45.81,108.86,68.04,122.47,299.37,Unlimited,SBD,M,
Boys,51.71,8,Yovany Ortiz,Dublin,50.35,97.52,63.5,122.47,283.5,Unlimited,SBD,M,
Boys,51.71,9,Chey Wild,Breckenridge,51.71,106.59,61.23,108.86,276.69,Unlimited,SBD,M,
Boys,51.71,10,Ricky Kirk,Bonham,49.9,95.25,61.23,117.93,274.42,Unlimited,SBD,M,
Boys,51.71,11,Paul Adams,Dublin,46.72,97.52,54.43,106.59,258.55,Unlimited,SBD,M,
Boys,51.71,12,Andre Nordie,Ponder,49.9,95.25,47.63,102.06,244.94,Unlimited,SBD,M,
Boys,55.79,1,Landon Hutton,Peaster,55.34,190.51,115.67,163.29,469.47,Unlimited,SBD,M,
Boys,55.79,2,Robert Zambrano,Bowie,54.88,199.58,86.18,176.9,462.66,Unlimited,SBD,M,
Boys,55.79,3,Axel Rangel,Comanche,55.79,170.1,104.33,163.29,437.72,Unlimited,SBD,M,
Boys,55.79,4,Aiden Ramirez,Wichita Falls City View,54.88,154.22,104.33,154.22,412.77,Unlimited,SBD,M,
Boys,55.79,5,Carlos Alvarado,Breckenridge,54.88,145.15,72.57,147.42,365.14,Unlimited,SBD,M,
Boys,55.79,6,Adrian Saucedo,Breckenridge,55.79,136.08,77.11,147.42,360.61,Unlimited,SBD,M,
Boys,55.79,7,Bryan Manzanares,Bonham,54.88,129.27,77.11,140.61,347,Unlimited,SBD,M,
Boys,55.79,8,Keaton Anding,Brock,54.88,120.2,70.31,140.61,331.12,Unlimited,SBD,M,
Boys,55.79,NS,Dominic Escalante,Pilot Point,,,,,,Unlimited,SBD,M,
Boys,55.79,NS,Stellar Maksin,Henrietta,,,,,,Unlimited,SBD,M,
Boys,55.79,DQ,Caden Murphy,Ponder,54.98,113.4,68.04,,,Unlimited,SBD,M,
Boys,55.79,DQ,Gavyn Brown,Bowie,55.34,149.69,106.59,,,Unlimited,SBD,M,
Boys,55.79,DQ,Shiv Patel,Bowie,55.79,149.69,97.52,,,Unlimited,SBD,M,
Boys,59.87,1,Cameron Patton,Dublin,59.42,192.78,131.54,181.44,505.76,Unlimited,SBD,M,
Boys,59.87,2,Erik Saucedo,Breckenridge,58.97,165.56,99.79,195.04,460.4,Unlimited,SBD,M,
Boys,59.87,3,Andrew Colclasure,Comanche,58.51,174.63,92.99,163.29,430.91,Unlimited,SBD,M,
Boys,59.87,4,Wyatt Davis,Boyd,59.42,181.44,97.52,142.88,421.84,Unlimited,SBD,M,
Boys,59.87,5,Jace Yarbrough,Iowa Park,57.15,167.83,97.52,154.22,419.57,Unlimited,SBD,M,
Boys,59.87,6,Chris Ramirez,Commerce,58.97,174.63,77.11,154.22,405.97,Unlimited,SBD,M,
Boys,59.87,7,Gage Dyer,Valley View,58.97,140.61,77.11,142.88,360.61,Unlimited,SBD,M,
Boys,59.87,8,Kolter Brumbelow,Henrietta,57.61,120.2,81.65,140.61,342.46,Unlimited,SBD,M,
Boys,59.87,9,Brandon Beltran,Wichita Falls City View,57.15,136.08,72.57,131.54,340.19,Unlimited,SBD,M,
Boys,59.87,10,Jaydev Fernandez,Breckenridge,57.61,129.27,68.04,136.08,333.39,Unlimited,SBD,M,
Boys,59.87,NS,Cooper McShan,Bowie,,,,,,Unlimited,SBD,M,
Boys,59.87,DQ,Christian Keen,Callisburg,59.42,154.22,95.25,,,Unlimited,SBD,M,
Boys,59.87,DQ,Nick Mills,Henrietta,59.87,147.42,,,,Unlimited,SBD,M,
Boys,67.13,1,Cosme Gonzalez,Comanche,66.68,208.65,147.42,222.26,578.33,Unlimited,SBD,M,
Boys,67.13,2,Leo Zapata,Bonham,66.22,204.12,133.81,206.38,544.31,Unlimited,SBD,M,
Boys,67.13,3,Whitt Williamson,Peaster,65.77,183.7,115.67,222.26,521.63,Unlimited,SBD,M,
Boys,67.13,4,Blake Leach,Brock,65.77,197.31,124.74,190.51,512.56,Unlimited,SBD,M,
Boys,67.13,5,Kyle Gore,Millsap,65.77,195.04,145.15,170.1,510.29,Unlimited,SBD,M,
Boys,67.13,6,Alex Saucedo,Breckenridge,65.77,176.9,106.59,217.72,501.22,Unlimited,SBD,M,
Boys,67.13,7,Gage Smith,Iowa Park,66.22,183.7,108.86,199.58,492.15,Unlimited,SBD,M,
Boys,67.13,8,Richie Eminovski,Pottsboro,65.77,185.97,115.67,188.24,489.88,Unlimited,SBD,M,
Boys,67.13,9,Marshall Daniel,Dublin,66.22,188.24,104.33,195.04,487.61,Unlimited,SBD,M,
Boys,67.13,10,Eduardo Salazar,Breckenridge,66.22,167.83,108.86,204.12,480.81,Unlimited,SBD,M,
Boys,67.13,11,Lukas Foreman,Peaster,66.68,163.29,129.27,161.03,453.59,Unlimited,SBD,M,
Boys,67.13,DQ,Andre Reyes,Breckenridge,66.68,176.9,,,,Unlimited,SBD,M,
Boys,74.84,1,Kason Anding,Brock,71.67,231.33,183.7,235.87,650.91,Unlimited,SBD,M,
Boys,74.84,2,Case Etter,Boyd,74.39,249.48,124.74,233.6,607.81,Unlimited,SBD,M,
Boys,74.84,3,Jayden Kipers,Peaster,73.03,226.8,142.88,233.6,603.28,Unlimited,SBD,M,
Boys,74.84,4,Elijah Gonzalez,Dublin,73.03,242.67,133.81,224.53,601.01,Unlimited,SBD,M,
Boys,74.84,5,Vance Guthrie,Brock,74.39,217.72,154.22,229.06,601.01,Unlimited,SBD,M,
Boys,74.84,6,Easton Gonzalez,Comanche,74.84,224.53,161.03,208.65,594.21,Unlimited,SBD,M,
Boys,74.84,7,Nathan Roberts,Breckenridge,71.21,206.38,149.69,233.6,589.67,Unlimited,SBD,M,
Boys,74.84,8,Alonso Moreno,Dublin,73.48,244.94,115.67,210.92,571.53,Unlimited,SBD,M,
Boys,74.84,9,Wiley Head,Callisburg,73.48,199.58,147.42,215.46,562.45,Unlimited,SBD,M,
Boys,74.84,10,Coooper McGee,Peaster,73.94,185.97,165.56,181.44,532.97,Unlimited,SBD,M,
Boys,74.84,DQ,Kale Jones,Ponder,74.39,,,,,Unlimited,SBD,M,
Boys,74.84,DQ,Lucas Azua,Dublin,73.48,,,,,Unlimited,SBD,M,
Boys,82.1,1,Wyatt Lacy,Peaster,81.19,288.03,176.9,283.5,748.43,Unlimited,SBD,M,
Boys,82.1,2,Griffin Cheslock,Early,78.93,251.74,165.56,244.94,662.24,Unlimited,SBD,M,
Boys,82.1,3,Danny Munson,Peaster,81.65,260.82,158.76,233.6,653.17,Unlimited,SBD,M,
Boys,82.1,4,Cooper Kidwell,Iowa Park,81.65,224.53,167.83,226.8,619.15,Unlimited,SBD,M,
Boys,82.1,5,Jovani Cervantes,Dublin,77.11,240.4,127.01,226.8,594.21,Unlimited,SBD,M,
Boys,82.1,6,Brayden Crockett,Whitesboro,81.65,208.65,104.33,249.48,562.45,Unlimited,SBD,M,
Boys,82.1,7,Abdiel Solis,Millsap,80.74,215.46,149.69,188.24,553.38,Unlimited,SBD,M,
Boys,82.1,8,Aaron Alix,Peaster,80.74,226.8,131.54,190.51,548.85,Unlimited,SBD,M,
Boys,82.1,9,Beau Chenevery,Paradise,82.1,222.26,127.01,176.9,526.17,Unlimited,SBD,M,
Boys,82.1,10,Bryan Longoria,Bonham,81.65,185.97,120.2,183.7,489.88,Unlimited,SBD,M,
Boys,82.1,NS,Hyatt Dunaway,Brock,,,,,,Unlimited,SBD,M,
Boys,82.1,DQ,Bryson McKnight,Iowa Park,80.29,,,,,Unlimited,SBD,M,
Boys,82.1,DQ,Cole Cassaday,Henrietta,81.19,,,,,Unlimited,SBD,M,
Boys,89.81,1,Joshua Gaitan,Iowa Park,89.81,272.16,174.63,229.06,675.85,Unlimited,SBD,M,
Boys,89.81,2,Ashton Reyes,Breckenridge,84.82,254.01,167.83,229.06,650.91,Unlimited,SBD,M,
Boys,89.81,3,Taylor Warner,Brock,84.82,251.74,172.37,219.99,644.1,Unlimited,SBD,M,
Boys,89.81,4,Izik Delgado,Early,89.36,244.94,161.03,229.06,635.03,Unlimited,SBD,M,
Boys,89.81,5,Blaze Deaton,Henrietta,84.82,229.06,156.49,238.14,623.69,Unlimited,SBD,M,
Boys,89.81,6,Cristian Aguilar,Boyd,89.36,256.28,149.69,217.72,623.69,Unlimited,SBD,M,
Boys,89.81,7,Emmanel Ramirez,Dublin,89.36,233.6,147.42,235.87,616.89,Unlimited,SBD,M,
Boys,89.81,8,Heith Lewis,Peaster,85.28,231.33,176.9,204.12,612.35,Unlimited,SBD,M,
Boys,89.81,9,Josh Cordell,Bells,88,235.87,133.81,235.87,605.55,Unlimited,SBD,M,
Boys,89.81,10,Cody Ngyeun,Ponder,88,254.01,142.88,192.78,589.67,Unlimited,SBD,M,
Boys,89.81,11,Tripp Brewer,Bowie,89.36,249.48,142.88,183.7,576.06,Unlimited,SBD,M,
Boys,89.81,12,Jack Nichols,Commerce,85.73,229.06,127.01,208.65,564.72,Unlimited,SBD,M,
Boys,89.81,NS,Ren Helton,Paradise,,,,,,Unlimited,SBD,M,
Boys,99.79,1,Brooks Clippinger,Early,95.71,285.76,188.24,256.28,730.28,Unlimited,SBD,M,
Boys,99.79,2,Braylin Garcia,Leonard,98.88,272.16,204.12,222.26,698.53,Unlimited,SBD,M,
Boys,99.79,3,Caden King,Bells,96.62,247.21,165.56,256.28,669.05,Unlimited,SBD,M,
Boys,99.79,4,Maliek Harris,Leonard,97.98,249.48,165.56,231.33,646.37,Unlimited,SBD,M,
Boys,99.79,5,Ethan Brooks,Brock,96.62,231.33,192.78,219.99,644.1,Unlimited,SBD,M,
Boys,99.79,6,Carlos Serrano,Commerce,96.16,235.87,167.83,213.19,616.89,Unlimited,SBD,M,
Boys,99.79,7,Blaine Turner,Ponder,98.43,249.48,124.74,240.4,614.62,Unlimited,SBD,M,
Boys,99.79,8,Markease Aubrey,Commerce,99.34,242.67,154.22,213.19,610.08,Unlimited,SBD,M,
Boys,99.79,9,Caiden Marin,Breckenridge,95.25,231.33,165.56,210.92,607.81,Unlimited,SBD,M,
Boys,99.79,10,Jordan Keller,Pottsboro,92.08,233.6,127.01,242.67,603.28,Unlimited,SBD,M,
Boys,99.79,11,Jackson Parris,Peaster,99.34,215.46,174.63,197.31,587.4,Unlimited,SBD,M,
Boys,99.79,12,Charles Thompson,Bonham,98.43,208.65,136.08,192.78,537.51,Unlimited,SBD,M,
Boys,109.77,1,Justin McBride,Bonham,109.32,301.64,217.72,249.48,768.84,Unlimited,SBD,M,
Boys,109.77,2,Jason Boyd,Bells,107.5,292.57,165.56,233.6,691.73,Unlimited,SBD,M,
Boys,109.77,3,Dario Cervantes,Valley View,106.14,281.23,170.1,235.87,687.19,Unlimited,SBD,M,
Boys,109.77,4,Corbyn Oden,Iowa Park,106.14,274.42,208.65,201.85,684.92,Unlimited,SBD,M,
Boys,109.77,5,Ethan Dease,Comanche,104.78,249.48,165.56,233.6,648.64,Unlimited,SBD,M,
Boys,109.77,6,Jadden Coleman,Commerce,104.33,249.48,165.56,219.99,635.03,Unlimited,SBD,M,
Boys,109.77,7,Dalton Adams,Early,104.33,258.55,149.69,226.8,635.03,Unlimited,SBD,M,
Boys,109.77,8,Walker Hughes,Brock,107.95,242.67,154.22,208.65,605.55,Unlimited,SBD,M,
Boys,109.77,9,Cole Morton,Breckenridge,109.32,258.55,145.15,201.85,605.55,Unlimited,SBD,M,
Boys,109.77,10,Robert Malone,Commerce,108.41,249.48,154.22,197.31,601.01,Unlimited,SBD,M,
Boys,109.77,NS,Adam Mueller,Brock,,,,,,Unlimited,SBD,M,
Boys,109.77,NS,Pablo Carrillo,Paradise,,213.19,142.88,213.19,,Unlimited,SBD,M,
Boys,109.77,DQ,Beckham Friesen,Brock,106.14,226.8,,,,Unlimited,SBD,M,
Boys,124.74,1,John Worthington,Paradise,119.75,288.03,210.92,249.48,748.43,Unlimited,SBD,M,
Boys,124.74,2,Evan Clapp,Brock,118.39,290.3,204.12,244.94,739.36,Unlimited,SBD,M,
Boys,124.74,3,Jacob Braun,Early,114.31,285.76,174.63,244.94,705.34,Unlimited,SBD,M,
Boys,124.74,4,Keegan Sherrill,Early,113.4,281.23,170.1,226.8,678.12,Unlimited,SBD,M,
Boys,124.74,5,Caden Merrett,Brock,116.12,263.08,170.1,199.58,632.76,Unlimited,SBD,M,
Boys,124.74,6,Fabricio Davila,Breckenridge,111.13,219.99,145.15,256.28,621.42,Unlimited,SBD,M,
Boys,124.74,7,Juan Mendoza,Pilot Point,117.03,272.16,131.54,208.65,612.35,Unlimited,SBD,M,
Boys,124.74,8,Noah Brown,Bowie,112.49,226.8,165.56,208.65,601.01,Unlimited,SBD,M,
Boys,124.74,9,Hector Pacheco,Millsap,119.75,226.8,154.22,208.65,589.67,Unlimited,SBD,M,
Boys,124.74,DQ,Brecken Gilley,Boyd,118.84,242.67,156.49,,,Unlimited,SBD,M,
Boys,124.74,DQ,Kevin Amador,Dallas A+,122.47,254.01,,,,Unlimited,SBD,M,
Boys,124.74,DQ,Sonny Burke,Henrietta,121.11,249.48,,,,Unlimited,SBD,M,
Boys,139.71,1,Cason Green,Iowa Park,127.91,299.37,199.58,231.33,730.28,Unlimited,SBD,M,
Boys,139.71,2,Gustavo Perez,Callisburg,137.44,294.84,199.58,231.33,725.75,Unlimited,SBD,M,
Boys,139.71,3,Seth Riddle,Commerce,132.9,283.5,183.7,242.67,709.87,Unlimited,SBD,M,
Boys,139.71,4,Spencer Johnson,Peaster,134.26,263.08,195.04,242.67,700.8,Unlimited,SBD,M,
Boys,139.71,5,Brock Riddle,Brock,126.1,254.01,183.7,226.8,664.51,Unlimited,SBD,M,
Boys,139.71,6,Diesel Wanamaker,Callisburg,136.08,249.48,142.88,233.6,625.96,Unlimited,SBD,M,
Boys,139.71,7,Osvaldo Rocha,Dallas A+,126.1,238.14,156.49,226.8,621.42,Unlimited,SBD,M,
Boys,139.71,8,Austin Freeman,Whitesboro,137.89,215.46,131.54,215.46,562.45,Unlimited,SBD,M,
Boys,139.71,9,Cashious McDonald,Ponder,135.17,217.72,145.15,183.7,546.58,Unlimited,SBD,M,
Boys,139.71,10,Stanley Lapole,Wichita Falls City View,134.72,174.63,167.83,163.29,505.76,Unlimited,SBD,M,
Boys,139.71,11,Brooklyn Collier,Bonham,132.45,174.63,122.47,183.7,480.81,Unlimited,SBD,M,
Boys,139.71,DQ,Shane Brown,Ponder,126.1,,,,,Unlimited,SBD,M,
Boys,139.71+,1,Landon Deters,Comanche,178.26,249.48,154.22,249.48,653.17,Unlimited,SBD,M,
Boys,139.71+,2,Carson Culp,Pottsboro,168.74,276.69,151.95,183.7,612.35,Unlimited,SBD,M,
Boys,139.71+,3,Derek Cervantes,Pottsboro,152.41,240.4,161.03,192.78,594.21,Unlimited,SBD,M,
Boys,139.71+,4,Braxton Armstrong,Leonard,159.21,226.8,167.83,192.78,587.4,Unlimited,SBD,M,
Boys,139.71+,5,Christian Chavez,Pilot Point,165.11,204.12,142.88,206.38,553.38,Unlimited,SBD,M,
Boys,139.71+,6,Danny Lopez,Comanche,143.79,231.33,149.69,158.76,539.77,Unlimited,SBD,M,
Boys,139.71+,7,Jaylon Davis,Bonham,157.85,170.1,140.61,190.51,501.22,Unlimited,SBD,M,
Boys,139.71+,8,Carmelo Martinez,Brock,150.59,195.04,120.2,183.7,498.95,Unlimited,SBD,M,
Boys,139.71+,9,Kaleb McIntyre,Wichita Falls City View,163.75,185.97,127.01,183.7,496.68,Unlimited,SBD,M,
Boys,139.71+,10,Colby Lamb,Whitesboro,144.24,179.17,113.4,190.51,483.08,Unlimited,SBD,M,
Boys,139.71+,11,Byron Coldicott,Pottsboro,144.7,190.51,111.13,158.76,460.4,Unlimited,SBD,M,
Boys,139.71+,DQ,Jacobi McGrergger,Bowie,145.6,,,,,Unlimited,SBD,M,
Boys,,NS,Manual Ortiz,Comanche,,,,,,Unlimited,SBD,M,
